[
    {
        "kelas": "7D",
        "email": "putri1010@webmail.smp.ac.id",
        "nama": "Putri Salsabila",
        "nis": "1010",
        "pencatatan": "A",
        "mapel": "Pendidikan Agama Islam",
        "nilaitugas": "A-",
        "nilaisikap": "B+",
        "nilaiketerampilan": "B",
        "lp": "kedisiplinan lebih ditingkatkan lagi dan dalam metode pembelajaran yang digunakan kurang efektif",
        "keterangan" : "siswa berkarakter baik"
    }
    
]